﻿[
    {
        "_id": "c-10100",
        "_parentId": "b-1010",
        "_type": "component",
        "_component": "text",
        "_classes": "",
        "_layout": "full",
        "title": "Введение",
        "displayTitle": "Введение",
        "body": "Instagram&#160;— это платформа, которая позволяет компаниям взаимодействовать с клиентами с помощью изображений.  В Instagram люди заходят для того, чтобы найти для себя нечто новое, в том числе компании.  60% пользователей узнают о новых товарах или услугах в Instagram, а 75% выполняют определенные действия после просмотра публикаций.<sup>1</sup> Мы учли это, когда разрабатывали инструменты Instagram Business.  Наши инструменты помогут вам продвигать свою компанию и взаимодействовать с клиентами в мобильном приложении Instagram.",
        "instruction": "",
        "_pageLevelProgress": {
            "_isEnabled": true
        }
    }, 
    {
        "_id": "c-10200",
        "_parentId": "b-1020",
        "_classes": "",
        "_type":"component",
        "_layout": "full",
        "_component": "narrative",
        "title": "Возможности инструментов Instagram Business",
        "displayTitle": "Возможности инструментов Instagram Business",
        "body": "Нажмите ниже, чтобы получить информацию об инструментах для компаний.",
        "instruction": "",
        "_setCompletionOn":"inview",
        "_pageLevelProgress": {
            "_isEnabled": true
        },
        "_hasNavigationInTextArea": false,
        "_items": [
            {
                "title": "Создайте профиль компании",
                "body": "На сегодняшний день уже 1,5 миллиона компаний создали профили в Instagram.<sup>2</sup> <br><br>Профили компаний позволяют рекламодателям рассказать людям о компании, а клиентам&#160;— связаться с ней офлайн (например, отправить сообщение или позвонить).",
                "_graphic": {
                    "src": "course/en/images/01_introduction/biz_profile.png",
                    "alt": "course/en/images/01_introduction/biz_profile.png",
                    "title": ""
                },
                "strapline": "Создайте профиль компании"
            },
            {
                "title": "Просмотр статистики",
                "body": "Инструмент для просмотра статистики позволяет ознакомиться с демографическими данными подписчиков и узнать результативность публикаций.  Чтобы ознакомиться со статистикой, вам понадобится профиль компании.",
                "_graphic": {
                    "src": "course/en/images/01_introduction/insights.png",
                    "alt": "course/en/images/01_introduction/insights.png",
                    "title": ""
                },
                "strapline": "Просмотр статистики"
            },
            {
                "title": "Продвижение",
                "body": "Инструмент для продвижения позволяет рекламодателям охватить новых клиентов и направить их на сайт, а также побудить их связаться с компанией по телефону или посетить ее точку продаж.",
                "_graphic": {
                    "src": "course/en/images/01_introduction/promote.png",
                    "alt": "course/en/images/01_introduction/promote.png",
                    "title": ""
                },
                "strapline": "Продвижение"
            }
            
        ]
    },
    {
        "_id": "c-10300",
        "_parentId": "b-1030",
        "_type": "component",
        "_component": "text",
        "_classes": "",
        "_layout": "full",
        "title": "Доступность",
        "displayTitle": "",
        "body": "<i>Примечание.</i>  Инструменты Instagram Business доступны во всех странах, в которых доступно приложение Instagram.<hr><cite><sup>1</sup>ComScore, январь 2016&#160;г., опрос пользователей Instagram, ноябрь 2015&#160;г.<br><sup>2</sup>Данные Facebook, ноябрь 2016&#160;г.</cite>",
        "instruction": "",
        "_pageLevelProgress": {
            "_isEnabled": true
        }
    }, 
    {
        "_id": "c-10400",
        "_parentId": "b-1040",
        "_type": "component",
        "_component": "co-jump",
        "_classes": "color-test",
        "_preLinkBody": "А теперь поговорим о том, как ",
        "_linkBody": "продвигать компанию в Instagram",
        "_postLinkBody": ".",
        "_link": "#/id/co-2000",
        "_graphic": "adapt/css/assets/icon_nextPage.png",
        "_pageLevelProgress": {
            "_isEnabled": false
        }
    }, 

    {
        "_id": "c-20100",
        "_parentId": "b-2010",
        "_type": "component",
        "_component": "text",
        "_classes": "",
        "_layout": "full",
        "title": "Продвижение компании в Instagram",
        "displayTitle": "",
        "body": "«Своя территория» в Instagram и на Facebook&#160;обеспечит вашей компании важные преимущества.  Профиль компании в Instagram позволит вам рассказать людям о компании, а клиентам&#160;— связаться с ней.  В таком профиле, помимо обычных полей, отображаются поля с информацией о компании.  Помимо этого, если вы добавите в этот профиль контактную информацию, в нем появится кнопка «Связаться», благодаря которой связаться с вами будет проще.",
        "instruction": "",
        "_pageLevelProgress": {
            "_isEnabled": true
        }
    }, 
    {
        "_id":"c-20200",
        "_parentId":"b-2020",
        "_type":"component",
        "_component":"canvas-animation",
        "_classes":"",
        "_layout":"full",
        "_animateOn":"inview",
        "title":"Функции",
        "displayTitle":"",
        "animationName":"Industry",
        "animation":"course/en/animations/industry/industry.js",
        "body":"Нажмите на значки ниже, чтобы отобразить информацию о соответствующей функции.<div id='industry'></div>",
        "_resources": {
            "textStyle_1":{"font":"bold 18px freight-sans-pro","fill": "#626161","wordWrap": false,"wordWrapWidth":200,"lineSpacing": -10 },
            "placement":"course/en/animations/industry/placement.png",
            "phone":"course/en/animations/industry/phone.png",
            "icon_1": "course/en/animations/industry/1_icon.png",
            "icon_2": "course/en/animations/industry/2_icon.png",
            "icon_3": "course/en/animations/industry/3_icon.png",
            "line_1":"course/en/animations/industry/line_1.png",
            "line_2":"course/en/animations/industry/line_2.png",
            "line_3":"course/en/animations/industry/line_3.png",
            "icon_text_1":"Отрасль",
            "icon_text_2":"Связаться",
            "icon_text_3":"Сайт и адрес",
            "popupMessage_1":"Пользователи смогут быстро найти вашу компанию по категории или отрасли.<br><br>Примеры категорий: «Продукты питания и бакалея», «Кофейня», «Магазин одежды».",
            "popupMessage_2":"Клиенты могут связаться с вами непосредственно из Instagram&#160;— позвонить, отправить сообщение или эл. письмо. Кроме того, они могут получить инструкции о том, как до вас добраться, в своем приложении для навигации.<br><br><i>Примечание.</i> Вам необходимо указать контактную информацию хотя бы одного типа.<br><img src='course/en/animations/industry/miniphone.png'>",
            "popupMessage_3":"Если вы укажете адрес и контактную информацию своей компании, клиентам будет просто ее найти."
        },
        "instruction":"",
        "_pageLevelProgress": {
            "_isEnabled": true
        }
    },
    {
        "_id": "c-20300",
        "_parentId": "b-2030",
        "_type": "component",
        "_component": "text",
        "_classes": "",
        "_layout": "full",
        "title": "",
        "displayTitle": "",
        "body": "Кроме того, профиль компании предоставляет инструменты для сбора статистики, продвижения публикаций и др., которые помогают лучше понять и охватить аудиторию.  Статистику и продвижение публикаций мы рассмотрим в разделе ниже.",
        "instruction": "",
        "_pageLevelProgress": {
            "_isEnabled": false
        }
    }, 
    {
        "_id": "c-20350",
        "_parentId": "b-2035",
        "_type": "component",
        "_component": "text",
        "_classes": "",
        "_layout": "full",
        "title": "Преобразование обычного профиля в профиль компании",
        "displayTitle": "Преобразование обычного профиля в профиль компании",
        "body": "Теперь вы знаете, какие инструменты доступны компаниям в Instagram. Далее мы расскажем, как преобразовать обычный профиль в профиль компании.<br><br>Чтобы выполнить эту задачу, вы должны быть администратором Страницы Facebook, которую хотите привязать.",
        "instruction": "",
        "_pageLevelProgress": {
            "_isEnabled": true
        }
    }, 
    {
        "_id": "c-20400",
        "_parentId": "b-2040",
        "_type": "component",
        "_component": "graphic",
        "_classes": "",
        "_layout": "left",
        "title": "",
        "displayTitle": "",
        "body": "",
        "instruction": "",
        "_pageLevelProgress": {
            "_isEnabled": false
        },
        "_graphic": {
            "src": "course/en/images/02_biz_profiles/jaspers_settings.png",
            "alt": "course/en/images/02_biz_profiles/jaspers_settings.png"
        }
    }, 
    {
        "_id": "c-20450",
        "_parentId": "b-2040",
        "_type": "component",
        "_component": "text",
        "_classes": "",
        "_layout": "right",
        "title": "Шаги 1 и 2",
        "displayTitle": "",
        "body": "<ol><li>Войдите в общедоступный аккаунт своей компании в Instagram с мобильного устройства и перейдите на страницу «Профиль».</li><br><br><li>На странице «Профиль» коснитесь значка <b>Настройки</b>.</li></ol>",
        "instruction": "",
        "_pageLevelProgress": {
            "_isEnabled": true
        }
    }, 
    {
        "_id": "c-20500",
        "_parentId": "b-2050",
        "_type": "component",
        "_component": "text",
        "_classes": "",
        "_layout": "left",
        "title": "Шаг 3",
        "displayTitle": "",
        "body": "<ol start='3'><li>Коснитесь <b>Переключиться на профиль компании</b>.</li></ol>",
        "instruction": "",
        "_pageLevelProgress": {
            "_isEnabled": true
        }
    }, 
    {
        "_id": "c-20550",
        "_parentId": "b-2050",
        "_type": "component",
        "_component": "graphic",
        "_classes": "",
        "_layout": "right",
        "title": "",
        "displayTitle": "",
        "body": "",
        "instruction": "",
        "_pageLevelProgress": {
            "_isEnabled": false
        },
        "_graphic": {
            "src": "course/en/images/02_biz_profiles/switch_to_biz_profile.png",
            "alt": "course/en/images/02_biz_profiles/switch_to_biz_profile.png"
        }
    }, 
    {
        "_id": "c-20600",
        "_parentId": "b-2060",
        "_type": "component",
        "_component": "graphic",
        "_classes": "",
        "_layout": "left",
        "title": "",
        "displayTitle": "",
        "body": "",
        "instruction": "",
        "_pageLevelProgress": {
            "_isEnabled": false
        },
        "_graphic": {
            "src": "course/en/images/02_biz_profiles/connect_fb_page.png",
            "alt": "course/en/images/02_biz_profiles/connect_fb_page.png"
        }
    }, 
    {
        "_id": "c-20650",
        "_parentId": "b-2060",
        "_type": "component",
        "_component": "text",
        "_classes": "",
        "_layout": "right",
        "title": "Шаг 4",
        "displayTitle": "",
        "body": "<ol start='4'><li>Появится запрос на привязку профиля к вашей Странице Facebook.  Это позволит Instagram импортировать информацию о вашей компании, чтобы вы могли ее отредактировать. <br><br><i>Примечание.</i> Вы должны быть администратором Страницы Facebook, которую собираетесь привязать.</li></ol>",
        "instruction": "",
        "_pageLevelProgress": {
            "_isEnabled": true
        }
    }, 
    {
        "_id": "c-20700",
        "_parentId": "b-2070",
        "_type": "component",
        "_component": "text",
        "_classes": "",
        "_layout": "left",
        "title": "Шаги 5 и 6",
        "displayTitle": "",
        "body": "<ol start='5'><li>После подключения профиль Instagram импортирует информацию о вашей компании с ее Страницы Facebook.  Обязательно укажите номер телефона и физический адрес или эл. почту компании, чтобы клиенты могли с вами связаться.<br><br><i>Примечание.</i> Вам необходимо указать контактную информацию хотя бы одного типа.</li><br><br><li>Коснитесь <b>Готово</b>, чтобы сохранить результат.</li></ol>",
        "instruction": "",
        "_pageLevelProgress": {
            "_isEnabled": true
        }
    }, 
    {
        "_id": "c-20750",
        "_parentId": "b-2070",
        "_type": "component",
        "_component": "graphic",
        "_classes": "",
        "_layout": "right",
        "title": "",
        "displayTitle": "",
        "body": "",
        "instruction": "",
        "_pageLevelProgress": {
            "_isEnabled": false
        },
        "_graphic": {
            "src": "course/en/images/02_biz_profiles/done.png",
            "alt": "course/en/images/02_biz_profiles/done.png"
        }
    }, 
    {
        "_id": "c-20800",
        "_parentId": "b-2080",
        "_type": "component",
        "_component": "graphic",
        "_classes": "",
        "_layout": "left",
        "title": "",
        "displayTitle": "",
        "body": "",
        "instruction": "",
        "_pageLevelProgress": {
            "_isEnabled": false
        },
        "_graphic": {
            "src": "course/en/images/02_biz_profiles/complete.png",
            "alt": "course/en/images/02_biz_profiles/complete.png"
        }
    }, 
    {
        "_id": "c-20850",
        "_parentId": "b-2080",
        "_type": "component",
        "_component": "text",
        "_classes": "",
        "_layout": "right",
        "title": "Процесс завершен",
        "displayTitle": "",
        "body": "Профиль компании готов!<br><br>Вы можете в любой момент отредактировать информацию, которая в нем содержится. Для этого коснитесь значка <b>Настройки</b>, а затем выберите <b>Редактировать профиль</b> и <b>Контактная информация компании</b>.",
        "instruction": "",
        "_pageLevelProgress": {
            "_isEnabled": true
        }
    },
    {
        "_id":"c-20900",
        "_parentId":"b-2090",
        "_type":"component",
        "_component":"canvas-animation",
        "_classes":"",
        "_layout":"full",
        "_animateOn":"inview",
        "title":"Связаться",
        "displayTitle":"",
        "animationName":"Reach",
        "animation":"course/en/animations/reach/reach.js",
        "body":"<div>Теперь клиенты смогут связаться с вами непосредственно по телефону или эл. почте и узнать, как до вас добраться, если нажмут кнопку <b>Связаться</b> в вашем профиле компании.</div><div id='reach'></div>",
        "_resources": {
            "textStyle_1":{"font":"bold 18px freight-sans-pro","fill": "#626161","wordWrap": false,"wordWrapWidth":200,"lineSpacing": -10 },
            "placement":"course/en/animations/reach/placement.png",
            "people":"course/en/animations/reach/people.png",
            "icon_1": "course/en/animations/reach/icon_1.png",
            "icon_2": "course/en/animations/reach/icon_2.png",
            "icon_3": "course/en/animations/reach/icon_3.png",
            "line_1":"course/en/animations/reach/line_1.png",
            "line_2":"course/en/animations/reach/line_2.png",
            "line_3":"course/en/animations/reach/line_3.png"
        },
        "instruction":"",
        "_pageLevelProgress": {
            "_isEnabled": true
        }
    },
    {
        "_id": "c-21000",
        "_parentId": "b-2100",
        "_type": "component",
        "_component": "co-jump",
        "_classes": "color-test",
        "_preLinkBody": "Далее вы узнаете, как ",
        "_linkBody": "использовать статистику, чтобы охватить аудиторию",
        "_postLinkBody": ".",
        "_link": "#/id/co-3000",
        "_graphic": "adapt/css/assets/icon_nextPage.png",
        "_pageLevelProgress": {
            "_isEnabled": false
        }
    },

    {
        "_id": "c-30100",
        "_parentId": "b-3010",
        "_type": "component",
        "_component": "text",
        "_classes": "",
        "_layout": "full",
        "title": "Охват аудитории с помощью статистики",
        "displayTitle": "",
        "body": "Изучив поведение и демографические данные аудитории, вы сможете создать материалы, которые ей понравятся и обеспечат вам нужные результаты.  Статистика, которую можно получить с помощью инструментов Instagram Business, позволяет изучить людей, связанных с вашей компанией, и узнать результаты ваших публикаций.",
        "instruction": "",
        "_pageLevelProgress": {
            "_isEnabled": true
        }
    }, 
    {
        "_id":"c-30200",
        "_parentId":"b-3020",
        "_type":"component",
        "_component":"animate-message",
        "_classes":"",
        "_layout":"full",
        "title":"Сводка результатов",
        "displayTitle":"",
        "body":"Статистика Instagram включает следующие полезные данные.",
        "instruction":"",
        "titleAnimation":"transition.slideRightIn",
        "bodyAnimation":"transition.slideLeftIn",
        "backgroundColor":"#ffffff,#ffffff,#ffffff",
        "_spacing":"20px",
        "_pageLevelProgress": {
            "_isEnabled": true
        },
        "_items": [
            {
                "body":"<img src='course/en/images/03_insights/aggregated_data.png' style='float:left;width:280px;height:283px;padding-right:10px;'><br><br><b>Сводка результатов (показы, охват, клики на сайт)</b><br><br><ul><li>Показы: общее количество показов публикации в Instagram за последние семь дней.</li><li>Охват: количество уникальных людей, которые увидели публикацию за последние семь дней.</li><li>Клики на сайт: количество людей, которые нажали ссылку на сайт в профиле компании.</li></ul>"
            }
        ]
    },
    {
        "_id":"c-30300",
        "_parentId":"b-3030",
        "_type":"component",
        "_component":"animate-message",
        "_classes":"",
        "_layout":"full",
        "title":"Популярные публикации",
        "displayTitle":"",
        "body":"",
        "instruction":"",
        "titleAnimation":"transition.slideRightIn",
        "bodyAnimation":"transition.slideLeftIn",
        "backgroundColor":"#ffffff,#ffffff,#ffffff",
        "_spacing":"20px",
        "_pageLevelProgress": {
            "_isEnabled": true
        },
        "_items": [
            {
                "body":"<img src='course/en/images/03_insights/top_posts.png' style='float:left;width:280px;height:283px;padding-right:10px;'><br><br><br><b>Популярные публикации</b><br><br>Вы можете узнать, какие публикации вашей компании наиболее популярны. Так вы определите, что интересно вашей аудитории, и сможете создать более подходящие для нее материалы.  Вы также можете упорядочить и отфильтровать публикации с фото и видео по просмотрам видео, показам, охвату, вовлеченности, отметкам «Нравится» или комментариям."
            }
        ]
    },
    {
        "_id":"c-30400",
        "_parentId":"b-3040",
        "_type":"component",
        "_component":"animate-message",
        "_classes":"",
        "_layout":"full",
        "title":"Статистика подписчиков",
        "displayTitle":"",
        "body":"",
        "instruction":"",
        "titleAnimation":"transition.slideRightIn",
        "bodyAnimation":"transition.slideLeftIn",
        "backgroundColor":"#ffffff,#ffffff,#ffffff",
        "_spacing":"20px",
        "_pageLevelProgress": {
            "_isEnabled": true
        },
        "_items": [
            {
                "body":"<img src='course/en/images/03_insights/follower_insights.png' style='float:left;width:280px;height:283px;padding-right:10px;'><br><br><br><b>Статистика подписчиков</b><br><br>Узнайте возраст, пол и местонахождение своих подписчиков, а также время, в которое они наиболее активны (часы и дни).  Эта информация поможет вам создать материалы, которые будут наиболее интересны вашей аудитории.<br><br><i>Примечание.</i>  Чтобы вы могли просматривать демографические метрики, например возраст и пол, профиль вашей компании в Instagram должен иметь не менее 100 подписчиков."
            }
        ]
    },
    {
        "_id": "c-30500",
        "_parentId": "b-3050",
        "_type": "component",
        "_component": "media",
        "_classes": "",
        "_layout": "full",
        "title": "Просмотр статистики в профиле компании",
        "displayTitle": "Просмотр статистики в профиле компании",
        "body": "Посмотрите видео ниже, чтобы узнать, как найти статистику в профиле компании в Instagram.",
        "instruction": "",
        "_pageLevelProgress": {
            "_isEnabled": true
        },
        "_setCompletionOn": "inview",
        "_useClosedCaptions": true,
        "_startLanguage": "en",
        "_media": {
            "mp4": "course/en/video/ig_insights_video.mp4",
            "poster": "course/en/video/ig_insights_video_poster.png"
        },
        "_transcript": {
            "_setCompletionOnView": true,
            "_inlineTranscript": true,
            "_externalTranscript": false,
            "inlineTranscriptButton": "Текст",
            "inlineTranscriptCloseButton": "Закрыть текст",
            "inlineTranscriptBody": "Статистика Instagram&#160;— это инструмент, который позволяет быстро определить, кем являются ваши подписчики и какие материалы им наиболее интересны. В результате вы сможете подготовить для подписчиков более актуальные публикации.<br><br>Чтобы получить доступ к статистике, необходим профиль компании в Instagram.<br><br>Чтобы приступить к работе, войдите в аккаунт своей компании в Instagram с мобильного устройства.<br> Откройте раздел «Профиль».<br>Коснитесь значка гистограммы в правом верхнем углу.<br>Сначала страница «Статистика» будет пуста&#160;— информация на ней появится, после того как вы создадите профиль компании.<br><br>Первый раздел на странице статистики демонстрирует общее количество показов или просмотров ваших публикаций в Instagram за последние семь дней.<br>Чтобы увидеть, сколько людей было охвачено публикацией за последние семь дней, проведите пальцем влево по количеству показов.<br><br>Во втором разделе показана статистика популярных публикаций.<br>Коснитесь «Еще», чтобы отобразить самые популярные публикации из профиля компании за последние семь дней.<br>Публикации сортируются по общему числу показов.<br>Вы также можете отфильтровать свои самые популярные публикации по фото или видео, по таким метрикам, как показы, охват, вовлеченность, отметки «Нравится» или комментарии, просмотры видео (для публикаций с видео), и по дате.<br>Чтобы отфильтровать статистику популярных публикаций, коснитесь синей надписи и выберите фильтры, а затем коснитесь «Применить».<br><br>Чтобы просмотреть статистику по конкретной публикации, коснитесь этой публикации.<br>Затем нажмите «Посмотреть статистику» под публикацией.<br>Вы увидите общее число показов, охват и вовлеченность для публикации.<br><br>Третий раздел страницы статистики&#160;— «Действия подписчиков». В нем показано, когда ваши подписчики наиболее активны в Instagram.<br>Коснитесь «Еще», чтобы отобразить общее количество подписчиков, разбивку по полу, возрасту и местонахождению, а также часы и дни, в которые они чаще всего входят в Instagram.<br>Нажмите серый текст, чтобы узнать больше о подписчиках. Например, если вы нажмете на женскую группу, вы увидите разбивку подписчиц по возрасту.<br>Чтобы узнать больше о том или ином типе статистики, нажмите «Что это значит» в нижней части соответствующей страницы в разделе статистики.<br><br>Подробнее о рекламе в Instagram см. на сайте <a href='http://business.instagram.com' target='_blank'> business.instagram.com</a>",
            "transcriptLinkButton": "Текст",
            "transcriptLink": ""
        },
        "_playerOptions": {
            "poster": "",
            "showPosterWhenEnded": false,
            "defaultVideoWidth": 480,
            "defaultVideoHeight": 270,
            "videoWidth": -1,
            "videoHeight": -1,
            "defaultAudioWidth": 400,
            "defaultAudioHeight": 30,
            "defaultSeekBackwardInterval": "(media.duration * 0.05)",
            "defaultSeekForwardInterval": "(media.duration * 0.05)",
            "audioWidth": -1,
            "audioHeight": -1,
            "startVolume": 0.8,
            "loop": false,
            "autoRewind": true,
            "enableAutosize": true,
            "alwaysShowHours": false,
            "showTimecodeFrameCount": false,
            "framesPerSecond": 25,
            "autosizeProgress": true,
            "alwaysShowControls": false,
            "hideVideoControlsOnLoad": false,
            "clickToPlayPause": true,
            "iPadUseNativeControls": false,
            "iPhoneUseNativeControls": false,
            "AndroidUseNativeControls": false,
            "features": ["playpause", "current", "progress", "duration", "tracks", "volume", "fullscreen"],
            "isVideo": true,
            "enableKeyboard": true,
            "pauseOtherPlayers": true,
            "startLanguage": "",
            "tracksText": "mejs.i18n.t('Captions/Subtitles')",
            "hideCaptionsButtonWhenEmpty": true,
            "toggleCaptionsButtonWhenOnlyOne": false,
            "slidesSelector": ""
        }
    }, 
    {
        "_id": "c-30700",
        "_parentId": "b-3070",
        "_type": "component",
        "_component": "co-jump",
        "_classes": "color-test",
        "_preLinkBody": "Далее вы узнаете, как ",
        "_linkBody": "продвигать публикации для увеличения охвата",
        "_postLinkBody": ".",
        "_link": "#/id/co-4000",
        "_graphic": "adapt/css/assets/icon_nextPage.png",
        "_pageLevelProgress": {
            "_isEnabled": false
        }
    }, {
        "_id": "c-40100",
        "_parentId": "b-4010",
        "_type": "component",
        "_component": "text",
        "_classes": "",
        "_layout": "full",
        "title": "Продвижение публикаций для увеличения охвата",
        "displayTitle": "",
        "body": "Более 600 миллионов человек ежемесячно заходят в Instagram за вдохновением и новой информацией. Поэтому мы рекомендуем вам продвигать свои публикации, чтобы охватить новых клиентов в Instagram.<sup>1</sup> Запустить продвижение публикации можно прямо из мобильного приложения Instagram.  Instagram предлагает вам те же технологии таргетинга на основе действий людей, что и Facebook, позволяющие охватить реальных людей. На сегодняшний день более миллиона компаний уже запустили рекламу в Instagram.<sup>2</sup>",
        "instruction": "",
        "_pageLevelProgress": {
            "_isEnabled": true
        }
    },
    {
        "_id": "c-40200",
        "_parentId": "b-4020",
        "_type": "component",
        "_component": "text",
        "_classes": "",
        "_layout": "full",
        "title": "Цели рекламы для продвижения",
        "displayTitle": "",
        "body": "Узнайте, как просто создать продвижение из существующей публикации в Instagram. На данный момент функция продвижения поддерживает две цели рекламы&#160;— привлечение людей на сайт или увеличение количества звонков в компанию/посещений точки продаж. Обе эти цели помогают охватить новых клиентов.",
        "instruction": "",
        "_pageLevelProgress": {
            "_isEnabled": true
        }
    },
    {
        "_id":"c-40250",
        "_parentId":"b-4020",
        "_type":"component",
        "_component":"animate-message",
        "_classes":"",
        "_layout":"left",
        "title":"Клики на сайт",
        "displayTitle":"",
        "body":"",
        "instruction":"",
        "titleAnimation":"transition.slideDownIn",
        "bodyAnimation":"transition.slideDownIn",
        "backgroundColor":"#ffffff,#ffffff,#ffffff",
        "_spacing":"0px",
        "_pageLevelProgress": {
            "_isEnabled": false
        },
        "_items": [
            {
                "body":"<div align='center'><img src='course/en/images/04_promote/website_clicks.png'><br><b>Клики на сайт</b><br><br><img src='course/en/images/04_promote/arrow.png'><br><br><b>Привлекает людей на\nсайт компании</b></div>"
            }
        ]
    },
    {
        "_id":"c-40252",
        "_parentId":"b-4020",
        "_type":"component",
        "_component":"animate-message",
        "_classes":"",
        "_layout":"right",
        "title":"Местная узнаваемость",
        "displayTitle":"",
        "body":"",
        "instruction":"",
        "titleAnimation":"transition.slideDownIn",
        "bodyAnimation":"transition.slideDownIn",
        "backgroundColor":"#ffffff,#ffffff,#ffffff",
        "_spacing":"0px",
        "_pageLevelProgress": {
            "_isEnabled": false
        },
        "_items": [
            {
                "body":"<div align='center'><img src='course/en/images/04_promote/local_awareness.png'><br><b>Местная узнаваемость</b><br><br><img src='course/en/images/04_promote/arrow.png'><br><br><b>Побуждает людей связаться с вами\nили посетить вашу точку продаж</b></div>"
            }
        ]
    },
        {
        "_id": "c-40256",
        "_parentId": "b-4020",
        "_type": "component",
        "_component": "text",
        "_classes": "",
        "_layout": "full",
        "title": "",
        "displayTitle": "",
        "body": "<i>Примечание.</i> На Facebook для рекламы с целью увеличения количества звонков в компанию или посещений точки продаж доступны другие призывы к действию, но в Instagram функция продвижения пока поддерживает только призывы к действию «Как добраться» и «Позвонить».",
        "instruction": "",
        "_pageLevelProgress": {
            "_isEnabled": false
        }
    },
    {
        "_id": "c-40300",
        "_parentId": "b-4030",
        "_type": "component",
        "_component": "text",
        "_classes": "",
        "_layout": "full",
        "title": "Продвижение публикации в Instagram",
        "displayTitle": "Продвижение публикации в Instagram",
        "body": "Чтобы приступить к работе, перейдите в профиль компании и выберите публикацию, которую вы ранее опубликовали в Instagram.",
        "instruction": "",
        "_pageLevelProgress": {
            "_isEnabled": true
        }
    },
    {
        "_id": "c-40301",
        "_parentId": "b-4030",
        "_type": "component",
        "_component": "graphic",
        "_classes": "",
        "_layout": "left",
        "title": "",
        "displayTitle": "",
        "body": "",
        "instruction": "",
        "_pageLevelProgress": {
            "_isEnabled": false
        },
        "_graphic": {
            "src": "course/en/images/04_promote/promote.png",
            "alt": "course/en/images/04_promote/promote.png"
        }
    },
    {
        "_id": "c-40350",
        "_parentId": "b-4030",
        "_type": "component",
        "_component": "text",
        "_classes": "",
        "_layout": "right",
        "title": "Шаг 1",
        "displayTitle": "",
        "body": "<ol><li>Коснитесь <b>Продвигать</b> под фото или видео.</li></ol>",
        "instruction": "",
        "_pageLevelProgress": {
            "_isEnabled": true
        }
    }, 
    {
        "_id": "c-40400",
        "_parentId": "b-4040",
        "_type": "component",
        "_component": "text",
        "_classes": "",
        "_layout": "left",
        "title": "Шаг 2",
        "displayTitle": "",
        "body": "<ol start='2'><li>Выберите цель, которая максимально соответствует задачам вашей компании.  Возможные цели рекламы:<br><br><ul><li>Посетить ваш сайт</li><li>Позвонить в вашу компанию или посетить ее</li><ul><br><br>Чтобы получить доступ к дополнительным целям, в том числе к цели «Конверсии на сайте», воспользуйтесь инструментом для создания рекламы или Power Editor.</li></ol>",
        "instruction": "",
        "_pageLevelProgress": {
            "_isEnabled": true
        }
    }, 
    {
        "_id": "c-40450",
        "_parentId": "b-4040",
        "_type": "component",
        "_component": "graphic",
        "_classes": "",
        "_layout": "right",
        "title": "",
        "displayTitle": "",
        "body": "",
        "instruction": "",
        "_pageLevelProgress": {
            "_isEnabled": false
        },
        "_graphic": {
            "src": "course/en/images/04_promote/select_objective.png",
            "alt": "course/en/images/04_promote/select_objective.png"
        }
    }, 
    {
        "_id": "c-40500",
        "_parentId": "b-4050",
        "_type": "component",
        "_component": "graphic",
        "_classes": "",
        "_layout": "left",
        "title": "",
        "displayTitle": "",
        "body": "",
        "instruction": "",
        "_pageLevelProgress": {
            "_isEnabled": false
        },
        "_graphic": {
            "src": "course/en/images/04_promote/cta_text.png",
            "alt": "course/en/images/04_promote/cta_text.png"
        }
    },
    {
        "_id": "c-40550",
        "_parentId": "b-4050",
        "_type": "component",
        "_component": "text",
        "_classes": "",
        "_layout": "right",
        "title": "Шаг 3",
        "displayTitle": "",
        "body": "<ol start='3'><li>Чтобы побудить людей посетить ваш сайт или позвонить в вашу компанию, выберите один из этих призывов к действию:<br><br><ul><li>Подробнее</li><li>Еще</li><li>В магазин</li><li>Забронировать</li><li>Регистрация</li><li>Свяжитесь с нами</li><ul><br><br>После этого вы сможете добавить адрес своего сайта, физический адрес и/или номер телефона компании в зависимости от выбранной цели.</li><ol>",
        "instruction": "",
        "_pageLevelProgress": {
            "_isEnabled": true
        }
    }, 
    {
        "_id": "c-40600",
        "_parentId": "b-4060",
        "_type": "component",
        "_component": "text",
        "_classes": "",
        "_layout": "left",
        "title": "Шаг 4",
        "displayTitle": "",
        "body": "<ol start='4'><li>Выберите аудиторию.<br><br><ul><li>Если вы выберете <b>Автоматически</b>, Instagram подберет для вас аудиторию, которая может заинтересоваться вашей компанией. Аудитория будет выбрана по демографическим данным, местонахождению, поведению и т.&#160;д.</li><li>Вы также можете <b>создать свою</b> аудиторию, т.&#160;е. самостоятельно выбрать людей, которых хотите охватить, по возрасту, полу, местонахождению или интересам.</li></ul></li><ol>",
        "instruction": "",
        "_pageLevelProgress": {
            "_isEnabled": true
        }
    }, 
    {
        "_id": "c-40650",
        "_parentId": "b-4060",
        "_type": "component",
        "_component": "graphic",
        "_classes": "",
        "_layout": "right",
        "title": "",
        "displayTitle": "",
        "body": "",
        "instruction": "",
        "_pageLevelProgress": {
            "_isEnabled": false
        },
        "_graphic": {
            "src": "course/en/images/04_promote/audience.png",
            "alt": "course/en/images/04_promote/audience.png"
        }
    }, 
    {
        "_id": "c-40700",
        "_parentId": "b-4070",
        "_type": "component",
        "_component": "graphic",
        "_classes": "",
        "_layout": "left",
        "title": "",
        "displayTitle": "",
        "body": "",
        "instruction": "",
        "_pageLevelProgress": {
            "_isEnabled": false
        },
        "_graphic": {
            "src": "course/en/images/04_promote/budget.png",
            "alt": "course/en/images/04_promote/budget.png"
        }
    }, 
    {
        "_id": "c-40750",
        "_parentId": "b-4070",
        "_type": "component",
        "_component": "text",
        "_classes": "",
        "_layout": "right",
        "title": "Шаг 5",
        "displayTitle": "",
        "body": "<ol start='5'><li>Задайте бюджет продвижения.<br><br>Вы можете выбрать один из доступных вариантов или ввести свой.  Предустановленные варианты бюджета также позволяют определить приблизительный охват.  Например, эта продвигаемая публикация может охватить от 1900 до 5100 человек при бюджете в 5&#160;$.</li><ol>",
        "instruction": "",
        "_pageLevelProgress": {
            "_isEnabled": true
        }
    }, 
    {
        "_id": "c-40800",
        "_parentId": "b-4080",
        "_type": "component",
        "_component": "text",
        "_classes": "",
        "_layout": "left",
        "title": "Шаг 6",
        "displayTitle": "",
        "body": "<ol start='6'><li>Задайте продолжительность кампании.  Вы можете выбрать один из доступных вариантов или ввести свой.<br><br>Чтобы продолжить, коснитесь <b>Далее</b>.</li><ol>",
        "instruction": "",
        "_pageLevelProgress": {
            "_isEnabled": true
        }
    }, 
    {
        "_id": "c-40850",
        "_parentId": "b-4080",
        "_type": "component",
        "_component": "graphic",
        "_classes": "",
        "_layout": "right",
        "title": "",
        "displayTitle": "",
        "body": "",
        "instruction": "",
        "_pageLevelProgress": {
            "_isEnabled": false
        },
        "_graphic": {
            "src": "course/en/images/04_promote/duration.png",
            "alt": "course/en/images/04_promote/duration.png"
        }
    }, 
    {
        "_id": "c-40900",
        "_parentId": "b-4090",
        "_type": "component",
        "_component": "graphic",
        "_classes": "",
        "_layout": "left",
        "title": "",
        "displayTitle": "",
        "body": "",
        "instruction": "",
        "_pageLevelProgress": {
            "_isEnabled": false
        },
        "_graphic": {
            "src": "course/en/images/04_promote/review_order.png",
            "alt": "course/en/images/04_promote/review_order.png"
        }
    }, 
    {
        "_id": "c-40950",
        "_parentId": "b-4090",
        "_type": "component",
        "_component": "text",
        "_classes": "",
        "_layout": "right",
        "title": "Шаги 7 и 8",
        "displayTitle": "",
        "body": "<ol start='7'><li>Проверьте заказ.<br><br>Если в вашем рекламном аккаунте Facebook уже указана платежная информация, вы можете использовать ее, чтобы оплатить продвижение.  Если нет, отобразится запрос на ввод способа оплаты.</li><br><br><li>Коснитесь <b>Продвигать</b>, чтобы подтвердить продвижение.</li><ol>",
        "instruction": "",
        "_pageLevelProgress": {
            "_isEnabled": true
        }
    },
    {
        "_id": "c-41000",
        "_parentId": "b-4100",
        "_type": "component",
        "_component": "text",
        "_classes": "",
        "_layout": "full",
        "title": "Сноски",
        "displayTitle": "",
        "body": "<hr><cite><sup>1</sup>Данные Instagram, ноябрь 2016&#160;г.<br><sup>2</sup>Данные Instagram, март 2017&#160;г.</cite>",
        "instruction": "",
        "_pageLevelProgress": {
            "_isEnabled": true
        }
    }, 
    {
        "_id": "c-41010",
        "_parentId": "b-4100",
        "_type": "component",
        "_component": "co-jump",
        "_classes": "color-test",
        "_preLinkBody": "Вы узнали много нового.  Пройдите короткий ",
        "_linkBody": "тест",
        "_postLinkBody": ", чтобы проверить, насколько хорошо вы усвоили пройденное.",
        "_link": "#/id/co-5000",
        "_graphic": "adapt/css/assets/icon_nextPage.png",
        "_pageLevelProgress": {
            "_isEnabled": false
        }
    }, 

    {
    "_id":"c-50100",
    "_parentId":"b-5010", 
    "_type":"component",
    "_component":"mcq",
    "_classes":"",
    "_layout":"full",
    "_attempts":1,
    "_questionWeight":1,
    "_isRandom":false,
    "_selectable":1,
    "title": "Вопрос 1 из 6",
    "_setCompletionOn":"inview",
    "displayTitle": "Вопрос 1 из 6",
    "body": "Каковы минимальные требования, которые нужно выполнить, чтобы настроить профиль компании в Instagram?",
    "instruction": "",
    "_items": [
            {
                "text": "Наличие страницы в Instagram.",
                "_shouldBeSelected":false
            },
            {
                "text": "Наличие Страницы Facebook и права администратора этой Страницы.",
                "_shouldBeSelected":true
            },
            {
                "text": "Не менее 200 подписчиков на ваш аккаунт Instagram.",
                "_shouldBeSelected":false
            },
            {
                "text": "Должна быть указана платежная информация.",
                "_shouldBeSelected":false
            }
        ],
        "_feedback":{
            "correct":"Верно!  Вы должны быть администратором Страницы Facebook, для которой создаете профиль компании в Instagram.",
            "_incorrect": {
                "notFinal": "",
                "final": "К сожалению, ответ неверный. Вы должны быть администратором Страницы Facebook, для которой создаете профиль компании в Instagram."
            }
        },
        "_pageLevelProgress": {
            "_isEnabled": true
        }
    },
    {
        "_id":"c-50200",
        "_parentId":"b-5020", 
        "_type":"component",
        "_component":"mcq",
        "_classes":"",
        "_layout":"full",
        "_attempts":1,
        "_questionWeight":1,
        "_isRandom":false,
        "_selectable":1,
        "_setCompletionOn":"inview",
        "title": "Вопрос 2 из 6",
        "displayTitle": "Вопрос 2 из 6",
        "body": "Сколько человек должны подписаться на профиль вашей компании, чтобы вы получили возможность просматривать статистику по возрасту и полу подписчиков?",
        "instruction": "",
        "_items": [
            {
                "text": "20",
                "_shouldBeSelected":false
            },
            {
                "text": "100",
                "_shouldBeSelected":true
            },
            {
                "text": "200",
                "_shouldBeSelected":false
            },
            {
                "text": "500",
                "_shouldBeSelected":false
            }
        ],
        "_feedback":{
            "correct":"Верно! Чтобы вы могли просматривать статистику и демографические данные по возрасту и полу подписчиков, их должно быть не менее 100.",
            "_incorrect": {
                "notFinal": "",
                "final": "К сожалению, ответ неверный.  Чтобы вы могли просматривать статистику и демографические данные по возрасту и полу подписчиков, их должно быть не менее 100."
            }
        },
        "_pageLevelProgress": {
            "_isEnabled": true
        }
    },
    {
        "_id":"c-50300",
        "_parentId":"b-5030", 
        "_type":"component",
        "_component":"mcq",
        "_classes":"",
        "_layout":"full",
        "_attempts":1,
        "_questionWeight":1,
        "_isRandom":false,
        "_selectable":1,
        "title": "Вопрос 3 из 6",
        "_setCompletionOn":"inview",
        "displayTitle": "Вопрос 3 из 6",
        "body": "Какой инструмент позволяет наиболее подробно изучить аудиторию и определить ее вовлеченность для ваших публикаций?",
        "instruction": "",
        "_items": [
            {
                "text": "Профиль компании",
                "_shouldBeSelected":false
            },
            {
                "text": "Статистика",
                "_shouldBeSelected":true
            },
            {
                "text": "Аудитория",
                "_shouldBeSelected":false
            },
            {
                "text": "Продвижение",
                "_shouldBeSelected":false
            }
        ],
        "_feedback":{
            "correct":"Верно!  Чтобы изучить поведение и демографические данные аудитории и узнать, какие публикации ей нравятся больше всего, нужно воспользоваться инструментом «Статистика».",
            "_incorrect": {
                "notFinal": "",
                "final": "К сожалению, ответ неверный.  Чтобы изучить поведение и демографические данные аудитории и узнать, какие публикации ей нравятся больше всего, нужно воспользоваться инструментом «Статистика»."
            }
        },
        "_pageLevelProgress": {
            "_isEnabled": true
        }
    },
    {
        "_id":"c-50400",
        "_parentId":"b-5040", 
        "_type":"component",
        "_component":"mcq",
        "_classes":"",
        "_layout":"full",
        "_attempts":1,
        "_questionWeight":1,
        "_isRandom":false,
        "_selectable":1,
        "_setCompletionOn":"inview",
        "title": "Вопрос 4 из 6",
        "displayTitle": "Вопрос 4 из 6",
        "body": "Что из перечисленного ниже необходимо, чтобы получить доступ к статистике и возможность продвигать публикации для своей аудитории?",
        "instruction": "",
        "_items": [
            {
                "text": "Профиль компании",
                "_shouldBeSelected":true
            },
            {
                "text": "Статистика",
                "_shouldBeSelected":false
            },
            {
                "text": "Аудитория",
                "_shouldBeSelected":false
            },
            {
                "text": "Продвижение",
                "_shouldBeSelected":false
            }
        ],
        "_feedback":{
            "correct":"Верно!  Чтобы получить доступ к статистике и функции продвижения, вы должны переключиться на профиль компании в Instagram.",
            "_incorrect": {
                "notFinal": "",
                "final": "К сожалению, ответ неверный. Чтобы получить доступ к статистике и функции продвижения, вы должны переключиться на профиль компании в Instagram."
            }
        },
        "_pageLevelProgress": {
            "_isEnabled": true
        }
    },
    {
        "_id":"c-50500",
        "_parentId":"b-5050", 
        "_type":"component",
        "_component":"mcq",
        "_classes":"",
        "_layout":"full",
        "_attempts":1,
        "_questionWeight":1,
        "_isRandom":false,
        "_selectable":4,
        "_setCompletionOn":"inview",
        "title": "Вопрос 5 из 6",
        "displayTitle": "Вопрос 5 из 6",
        "body": "Какие из перечисленных ниже параметров таргетинга можно задать для продвижения в Instagram?  (Выберите все подходящие варианты)",
        "instruction": "",
        "_items": [
            {
                "text": "Возраст",
                "_shouldBeSelected":true
            },
            {
                "text": "Пол",
                "_shouldBeSelected":true
            },
            {
                "text": "Место",
                "_shouldBeSelected":true
            },
            {
                "text": "Интересы",
                "_shouldBeSelected":true
            },
            {
                "text": "Должность",
                "_shouldBeSelected":false
            }
        ],
        "_feedback":{
            "correct":"Верно!  Вы можете настроить таргетинг по возрасту, полу, местонахождению или интересам.  Кроме того, вы можете позволить Instagram автоматически подобрать для вас наиболее подходящую аудиторию.",
            "_incorrect": {
                "notFinal": "",
                "final": "К сожалению, ответ неверный.  Вы можете настроить таргетинг по возрасту, полу, местонахождению или интересам.  Кроме того, вы можете позволить Instagram автоматически подобрать для вас наиболее подходящую аудиторию."
            },
            "_partlyCorrect": {
                "notFinal": "",
                "final": "К сожалению, ответ неверный.  Вы можете настроить таргетинг по возрасту, полу, местонахождению или интересам.  Кроме того, вы можете позволить Instagram автоматически подобрать для вас наиболее подходящую аудиторию."
            }
        },
        "_pageLevelProgress": {
            "_isEnabled": true
        }
    },
    {
        "_id":"c-50600",
        "_parentId":"b-5060", 
        "_type":"component",
        "_component":"mcq",
        "_classes":"",
        "_layout":"full",
        "_attempts":1,
        "_questionWeight":1,
        "_isRandom":false,
        "_selectable":2,
        "_setCompletionOn":"inview",
        "title": "Вопрос 6 из 6",
        "displayTitle": "Вопрос 6 из 6",
        "body": "Какие из перечисленных ниже целей рекламы можно выбрать для продвижения в инструментах Instagram Business?  (Выберите два варианта.)",
        "instruction": "",
        "_items": [
            {
                "text": "Просмотры видео",
                "_shouldBeSelected":false
            },
            {
                "text": "Клики на сайт",
                "_shouldBeSelected":true
            },
            {
                "text": "Местная узнаваемость",
                "_shouldBeSelected":true
            },
            {
                "text": "Конверсии на сайте",
                "_shouldBeSelected":false
            }
        ],
        "_feedback":{
            "correct":"Верно!  Для продвижения публикаций из профиля компании в Instagram можно выбрать цели «Клики на сайт» и «Местная узнаваемость».",
            "_incorrect": {
                "notFinal": "",
                "final": "К сожалению, ответ неверный.  Для продвижения публикаций из профиля компании в Instagram можно выбрать цели «Клики на сайт» и «Местная узнаваемость»."
            },
            "_partlyCorrect": {
                "notFinal": "",
                "final": "К сожалению, ответ неверный.  Для продвижения публикаций из профиля компании в Instagram можно выбрать цели «Клики на сайт» и «Местная узнаваемость»."
            }
        },
        "_pageLevelProgress": {
            "_isEnabled": true
        }
    },
    {
        "_id":"c-50700",
        "_parentId":"b-5070",
        "_type":"component",
        "_component":"co-jump",
        "_classes":"color-test",
        "_autoComplete":true,
        "_preLinkBody":"Чтобы завершить курс, нажмите кнопку ниже. Примечание. Нажмите <a href='#'>здесь</a>, чтобы проверить, все ли модули вы прошли до конца.<br>",
        "_linkBody":"<div style = 'text-align:center;padding:8px;'><button class='buttons-action'><b>ЭТОТ КУРС ПРОЙДЕН</b></button></div><br> ",
        "_postLinkBody":"",
        "_link":"",
        "_pageLevelProgress": {
            "_isEnabled": false
        }
    }
]