﻿{
    "_id": "course",
    "_type": "course",
    "title": "Продвижение компании на мобильных устройствах с помощью инструментов Instagram Business",
    "displayTitle": "Продвижение компании на мобильных устройствах с помощью инструментов Instagram Business",
    "body": "",
    "_buttons": {
        "_submit": {
            "buttonText": "Отправить",
            "ariaLabel": "Нажмите здесь, чтобы отправить ответ."
        },
        "_reset": {
            "buttonText": "Сбросить",
            "ariaLabel": "Нажмите здесь, чтобы сбросить вопрос."
        },
        "_showCorrectAnswer": {
            "buttonText": "Правильный ответ",
            "ariaLabel": "Нажмите здесь, чтобы отобразить правильный ответ."
        },
        "_hideCorrectAnswer": {
            "buttonText": "Мой ответ",
            "ariaLabel": "Нажмите здесь, чтобы отобразить ваш ответ."
        },
        "_showFeedback": {
            "buttonText": "Показать комментарий",
            "ariaLabel": "Нажмите здесь, чтобы еще раз отобразить комментарий к вопросу."
        },
        "remainingAttemptsText": "осталось попыток",
        "remainingAttemptText": "последняя попытка",
        "disabledAriaLabel": "Эта кнопка сейчас недоступна."
    },
    "_globals": {
        "_components": {
            "_accordion": {
                "ariaRegion": "Этот компонент состоит из нескольких развертываемых панелей с текстом. Выберите названия элементов, чтобы отобразить или скрыть соответствующие панели с материалами.",
                "instruction": ""
            },
            "_blank": {
                "ariaRegion": "",
                "instruction": ""
            },
            "_gmcq": {
                "ariaRegion": "Этот компонент представляет собой вопрос с несколькими вариантами ответа в графическом формате. Когда вы выберете вариант, нажмите кнопку «Отправить» ниже.",
                "instruction": ""
            },
            "_graphic": {
                "ariaRegion": "",
                "instruction": ""
            },
            "_hotGraphic": {
                "ariaRegion": "Ниже находится компонент, позволяющий выбрать маркеры на изображении. Выберите тот или иной маркер, чтобы открыть всплывающее окно с изображением и текстом. Чтобы закрыть его, нажмите кнопку «Закрыть».",
                "instruction": ""
            },
            "_matching": {
                "ariaRegion": "Компонент «Вопрос» требует выбрать правильный ответ из раскрывающегося списка ниже. Когда вы выберете варианты ответа, нажмите кнопку «Отправить».",
                "instruction": ""
            },
            "_mcq": {
                "ariaRegion": "Этот компонент представляет собой вопрос с несколькими вариантами ответа. Когда вы выберете вариант, нажмите кнопку «Отправить» ниже.",
                "instruction": ""
            },
            "_media": {
                "ariaRegion": "Это мультимедийный компонент, который воспроизводит видео. Нажмите кнопку «Воспроизведение/пауза», чтобы посмотреть видео или послушать аудиозапись. Вы также можете выбрать ссылку ниже, чтобы посмотреть расшифровку текста.",
                "instruction": ""
            },
            "_narrative": {
                "ariaRegion": "Этот компонент отображает галерею изображений с текстом. Для перемещения по тексту воспользуйтесь стрелками вперед и назад.",
                "instruction": ""
            },
            "_slider": {
                "ariaRegion": "Этот компонент требует ответить на вопрос, выбрав подходящее значение. Выберите значение и нажмите кнопку «Отправить» ниже.",
                "instruction": ""
            },
            "_text": {
                "ariaRegion": "",
                "instruction": ""
            },
            "_textInput": {
                "ariaRegion": "Этот компонент «Вопрос» требует ввести ответ в соответствующее поле. Когда вы ответите на вопрос, нажмите кнопку «Отправить» ниже.",
                "instruction": ""
            }
        },
        "_extensions": {
            "_pageLevelProgress": {
                "pageLevelProgress": "Разделы страницы",
                "pageLevelProgressEnd": "Вы дошли до конца списка разделов страницы.",
                "pageLevelProgressIndicatorBar": "Прогресс прохождения курса. Нажмите здесь, чтобы увидеть прогресс прохождения курса и выбрать элемент, к которому хотите перейти. Вы завершили ",
                "optionalContent": "Дополнительные материалы"
            }
        },
        "_menu": {
            "_boxmenu": {
                "ariaRegion": "Меню",
                "menuItem": "Пункт меню.",
                "menuEnd": "Вы дошли до конца меню."
            }
        },
        "_accessibility": {
            "_accessibilityToggleTextOn": "Сделать элемент доступным?",
            "_accessibilityToggleTextOff": "Сделать элемент недоступным?",
            "_accessibilityInstructions": {
                "touch": "Инструкции по применению. Чтобы перейти на следующую страницу, проведите пальцем влево. Чтобы вернуться на предыдущую страницу, проведите пальцем вправо. Дважды коснитесь элемента, чтобы выбрать его. Чтобы перейти в верхнюю часть страницы, проведите двумя пальцами вверх.",
                "notouch": "Инструкции по применению. Чтобы перейти на следующую страницу, воспользуйтесь клавишей табуляции. Чтобы вернуться на предыдущую страницу, воспользуйтесь клавишей Shift. Чтобы выбрать элемент, воспользуйтесь клавишей Enter. Чтобы перейти в верхнюю часть страницы, воспользуйтесь клавишей ESC.",
                "ipad": "Инструкции по применению для устройств с сенсорными экранами. Чтобы перейти на следующую страницу, проведите пальцем влево. Чтобы вернуться на предыдущую страницу, проведите пальцем вправо. Дважды коснитесь элемента, чтобы выбрать его. Чтобы перейти в верхнюю часть страницы, проведите двумя пальцами вверх. Инструкции по применению для устройств с клавиатурой. Чтобы перейти на следующую страницу, нажмите клавишу со стрелкой влево. Чтобы вернуться на предыдущую страницу, нажмите клавишу со стрелкой вправо. Чтобы выбрать элемент, одновременно нажмите клавиши со стрелками вверх и вниз."
            },
            "_ariaLabels": {
                "navigation": "Панель навигации по курсу",
                "menuLoaded": "Меню загружено.",
                "menu": "Меню",
                "page": "Страница",
                "pageLoaded": "Страница загружена.",
                "pageEnd": "Вы дошли до конца страницы.",
                "previous": "Назад",
                "navigationBack": "Возвращение назад",
                "navigationDrawer": "Откройте ресурсы курса.",
                "close": "Закрыть",
                "closeDrawer": "Закрыть панель",
                "closeResources": "Закрыть ресурсы",
                "resourcesEnd": "Вы дошли до конца списка ресурсов.",
                "drawerBack": "Вернуться в панель",
                "drawer": "Верхняя часть боковой панели",
                "closePopup": "Закрыть всплывающее окно",
                "next": "Далее",
                "done": "Готово",
                "complete": "Завершено",
                "incomplete": "Не завершено",
                "incorrect": "Неправильно",
                "correct": "Правильно",
                "locked": "Заблокировано",
                "accessibilityToggleButton": "Кнопка поможет вам настроить доступ к элементу.",
                "feedbackPopUp": "Всплывающее окно открыто.",
                "menuBack": "Вернуться в меню",
                "visited": "Просмотрено"
            }
        }
    },
    "_latestTrackingId": 38,
    "_pageLevelProgress": {
        "_isEnabled": true,
        "_altText": "компонентов на этой странице пройдено."
    },
    "_bookmarking": {
        "_isEnabled": true,
        "_level": "component",
        "title": "Закладки",
        "body": "Хотите продолжить с того места, где вы остановились в прошлый раз?",
        "_buttons": {
            "yes": "Да",
            "no": "Нет"
        }
    },
    "_analytics": {
        "_isEnabled": true
    }
}